<svg width="428" height="434" viewBox="0 0 428 434" fill="none" xmlns="http://www.w3.org/2000/svg">
<g opacity="0.9">
<path d="M123.457 145.204C123.248 150.122 125.794 154.727 130.086 157.134C130.504 157.379 134.062 154.623 134.55 154.308C135.596 153.645 136.643 152.948 137.655 152.25C137.794 152.145 138.842 151.344 138.945 151.378C134.655 148.971 132.109 144.366 132.317 139.447C132.317 139.517 130.852 140.355 130.992 140.25C129.946 140.912 128.899 141.575 127.853 142.273C126.806 142.936 125.76 143.634 124.747 144.331C124.539 144.471 123.491 145.029 123.457 145.204" fill="#F9DD8C"/>
<path d="M197.168 150.925C197.552 156.821 203.272 161.425 209.099 160.553C209.204 160.553 209.797 158.984 209.727 159.158C210.215 158.006 210.703 156.856 211.192 155.74C211.68 154.588 212.133 153.437 212.623 152.286C212.693 152.111 213.076 150.855 213.18 150.855C207.354 151.727 201.634 147.122 201.249 141.227C201.249 141.472 200.656 142.588 200.621 142.622C200.133 143.774 199.645 144.924 199.156 146.041C198.668 147.192 198.215 148.343 197.727 149.495C197.587 149.843 197.133 150.541 197.168 150.925" fill="#F9C68C"/>
<path d="M108.711 338.545C112.931 338.37 117.152 338.195 121.373 338.021C121.618 338.021 121.339 327.486 121.409 327.486C117.187 327.661 112.966 327.834 108.746 328.009C108.501 328.009 108.78 338.545 108.711 338.545Z" fill="#F9C68C"/>
<path d="M70.3044 69.6822C68.5982 68.1934 66.5315 67.0159 64.6341 65.7892C63.6008 65.1174 62.6155 64.4926 61.3659 64.3724C58.6504 64.1562 56.4646 66.319 56.3193 68.9613C56.3193 69.0334 57.2806 69.6342 57.1844 69.5621C57.8814 70.0427 58.6023 70.5233 59.3232 71.0039C60.0442 71.4846 60.7411 71.9412 61.462 72.4218C61.5581 72.4939 62.3752 72.9264 62.3512 72.9985C62.5674 69.3458 66.3163 67.3283 69.4873 69.0585C69.3431 68.9613 69.199 68.8892 69.0548 68.7931C67.4447 67.7368 65.8597 66.7024 64.2496 65.6461C65.1388 66.4391 66.2682 67.0388 67.2535 67.6888C68.2377 68.3605 69.4152 68.9132 70.3044 69.6822" fill="#F5A952"/>
<path d="M230.291 367.439C228.616 372.045 230.221 377.278 234.163 380.138C234.337 380.242 235.734 380.103 235.699 380.103C236.954 380.068 238.175 379.998 239.431 379.928C240.686 379.859 241.908 379.788 243.164 379.719C243.442 379.719 244.525 379.475 244.699 379.615C240.721 376.754 239.152 371.521 240.826 366.916C240.721 367.161 236.047 367.09 235.559 367.126C234.303 367.195 233.082 367.266 231.827 367.335C231.651 367.335 230.327 367.301 230.291 367.439" fill="#F5A952"/>
<path d="M252.067 93.8824C255.136 99.1846 260.683 102.604 266.788 102.988C266.927 102.988 267.904 101.766 267.834 101.836C268.671 100.894 269.474 99.9874 270.277 99.0458C271.079 98.1032 271.916 97.1616 272.718 96.22C272.858 96.0452 273.556 95.0337 273.696 95.0337C267.591 94.6503 262.044 91.2313 258.973 85.9281C259.078 86.1029 255.764 89.5219 255.486 89.8703C255.171 90.2198 251.857 93.534 252.067 93.8824" fill="#F9C68C"/>
<path d="M272.514 16.9309C272.19 13.5403 270.177 10.5288 267.18 8.92194C267.109 8.89026 266.333 9.28021 266.384 9.26164C265.743 9.54455 265.128 9.81657 264.505 10.1071C263.88 10.3977 263.239 10.6795 262.617 10.9701C262.506 11.0269 261.919 11.3764 261.849 11.3436C264.845 12.9504 266.857 15.962 267.182 19.3525C267.169 19.24 269.636 18.2788 269.858 18.1674C270.097 18.0636 272.538 17.1559 272.514 16.9309" fill="#F9C68C"/>
<path d="M378.444 136.756C377.604 138.312 376.742 139.867 375.901 141.422C375.943 141.36 378.717 142.242 378.948 142.304C379.201 142.368 381.933 143.271 382.017 143.124C382.857 141.569 383.718 140.014 384.559 138.459C384.517 138.522 380.482 134.172 380.23 134.109C379.979 134.046 378.507 136.61 378.444 136.756Z" fill="#F9DD8C"/>
<path d="M88.2776 249.31C83.1469 249.889 79.3576 254.927 80.1856 260.015C80.4773 261.692 81.2987 263.425 81.8263 265.029C82.3867 266.616 83.2856 268.352 83.5631 269.997C82.7034 264.922 86.5244 259.869 91.655 259.292C91.5447 259.305 90.1291 254.687 90.0133 254.278C89.8975 253.871 88.5747 249.286 88.2776 249.31Z" fill="#F9DD8C"/>
<path d="M422.288 183.848C421.901 179.935 421.515 175.996 421.155 172.082C421.128 171.927 418.194 171.671 417.911 171.646C417.653 171.619 414.667 171.362 414.667 171.259C415.053 175.172 415.439 179.112 415.799 183.024C415.825 183.178 418.759 183.436 419.043 183.462C419.301 183.514 422.288 183.77 422.288 183.848" fill="#F9C68C"/>
<path d="M140.67 331.017C138.959 336.006 139.692 341.449 142.623 345.808C142.693 345.878 144.332 345.739 144.157 345.739C145.414 345.669 146.634 345.6 147.89 345.53C149.146 345.46 150.366 345.39 151.622 345.285C151.797 345.285 153.122 345.076 153.158 345.146C150.193 340.785 149.495 335.344 151.204 330.355C151.134 330.599 146.39 330.599 145.937 330.599C145.379 330.704 140.808 330.599 140.67 331.017" fill="#F2BC18"/>
<path d="M207.852 407.488C212.52 409.944 218.01 410.055 222.769 407.831C222.849 407.773 222.961 406.131 222.935 406.303C223.06 405.052 223.179 403.835 223.302 402.583C223.426 401.331 223.546 400.114 223.634 398.856C223.662 398.684 223.658 397.343 223.731 397.318C218.968 399.579 213.483 399.432 208.817 396.977C209.047 397.083 208.319 401.77 208.249 402.219C208.266 402.787 207.46 407.286 207.852 407.488" fill="#F2BC18"/>
<path d="M59.1924 125.333C56.0486 124.146 52.9038 122.934 49.737 121.747C49.8305 121.793 49.4575 124.96 49.4341 125.263C49.4115 125.567 48.992 128.686 49.2015 128.78C52.3457 129.968 55.4894 131.179 58.6571 132.367C58.5643 132.32 58.9368 129.153 58.9597 128.85C59.0067 128.524 59.4261 125.403 59.1924 125.333" fill="#F9DD8C"/>
<path d="M285.022 277.966C288.928 280.162 293.394 280.652 297.685 279.36C297.894 279.291 297.406 274.547 297.371 274.093C297.336 273.674 296.813 268.895 296.952 268.825C292.662 270.116 288.196 269.628 284.289 267.429C284.324 267.464 284.358 269.174 284.358 268.964C284.429 270.221 284.498 271.441 284.603 272.697C284.674 273.953 284.777 275.174 284.882 276.43C284.882 276.639 284.847 277.895 285.022 277.966" fill="#F9C68C"/>
<path d="M375.129 218.851C377.397 221.294 379.63 223.735 381.897 226.176C382.107 226.386 389.956 219.409 390.06 219.514C387.793 217.073 385.56 214.63 383.293 212.188C383.083 211.978 375.2 218.956 375.129 218.851Z" fill="#F9DD8C"/>
<path d="M341.135 228.829C344.446 228.453 347.737 228.106 351.048 227.729C351.34 227.685 350.384 217.228 350.53 217.206C347.218 217.581 343.928 217.929 340.617 218.305C340.324 218.349 341.26 228.836 341.135 228.829" fill="#F9DD8C"/>
<path d="M178.837 300.222C176.429 304.303 174.023 308.385 171.615 312.467C171.859 312.083 181.104 316.897 181.418 316.374C183.825 312.291 186.232 308.211 188.639 304.13C188.394 304.548 179.15 299.699 178.837 300.222Z" fill="#F9C68C"/>
<path d="M260.416 350.918C258.009 354.999 255.602 359.08 253.195 363.162C253.44 362.779 262.685 367.592 262.998 367.069C265.406 362.989 267.812 358.905 270.219 354.824C269.975 355.244 260.731 350.394 260.416 350.918Z" fill="#F9C68C"/>
<path d="M250.662 423.52C253.227 424.205 255.793 424.892 258.36 425.578C258.115 425.505 259.324 419.789 258.995 419.698C256.43 419.012 253.863 418.325 251.298 417.639C251.56 417.708 250.331 423.429 250.662 423.52" fill="#F9C68C"/>
<path d="M114.397 405.272C113.16 407.368 111.924 409.464 110.687 411.56C110.813 411.365 115.562 413.837 115.723 413.568C116.959 411.471 118.196 409.375 119.432 407.278C119.307 407.494 114.558 405.002 114.397 405.272Z" fill="#F9C68C"/>
<path d="M45.2949 171.697C45.5394 172.604 45.8185 173.51 46.0625 174.418C46.3416 175.36 46.2371 175.115 47.0042 175.29C47.4932 175.43 48.2254 175.255 48.749 175.22C50.9462 175.15 53.1451 175.08 55.3417 175.011C55.8649 175.011 55.9698 164.511 56.3183 164.511C54.1216 164.581 51.9227 164.649 49.7256 164.719C49.2725 164.719 48.8186 164.755 48.3304 164.755C47.9818 164.755 47.6327 164.789 47.2833 164.789C47.2142 164.58 47.1788 164.371 47.1088 164.196C46.6557 163.359 46.5166 162.103 46.2371 161.162C46.3071 161.44 46.0625 162.557 46.0625 162.696C45.923 163.918 45.8185 165.173 45.714 166.395C45.6094 167.615 45.4695 168.871 45.3995 170.091C45.365 170.581 45.1555 171.278 45.2949 171.697Z" fill="#F2BC18"/>
<path d="M206.077 121.332C206.321 123.913 206.53 126.494 206.775 129.077C206.81 129.321 209.81 130.018 210.124 130.088C210.438 130.193 213.473 130.821 213.508 131.03C213.263 128.449 213.054 125.866 212.81 123.285C212.775 123.042 209.775 122.344 209.461 122.274C209.147 122.204 206.113 121.541 206.077 121.332Z" fill="#F9DD8C"/>
<path d="M335.873 262.885C338.977 264.629 342.57 264.699 345.745 263.129C345.989 263.024 345.64 259.954 345.64 259.605C345.64 259.257 345.256 256.186 345.467 256.081C342.292 257.652 338.699 257.547 335.594 255.838C335.838 255.978 335.698 258.977 335.698 259.361C335.698 259.814 335.489 262.676 335.873 262.885" fill="#F5A952"/>
<path d="M245.367 273.848C244.425 276.429 243.484 279.011 242.541 281.558C242.541 281.593 249.134 284 249.134 283.965C250.077 281.383 251.019 278.802 251.96 276.256C251.96 276.221 245.367 273.813 245.367 273.848Z" fill="#F5A952"/>
<path d="M48.0308 275.694C48.1704 278.728 48.3103 281.798 48.4493 284.833C48.4493 285.113 55.4613 285.008 55.4613 285.182C55.3215 282.147 55.1828 279.077 55.043 276.042C55.043 275.797 48.0308 275.867 48.0308 275.694" fill="#F2BC18"/>
<path d="M4.3374 242.393C5.45354 245.219 6.57023 248.079 7.68604 250.905C7.86048 251.324 10.6165 251.777 11.0701 251.917C11.5233 252.057 14.3142 252.44 14.4538 252.858C13.3371 250.033 12.2208 247.173 11.1047 244.347C10.9301 243.928 8.17419 243.474 7.72099 243.334C7.30241 243.196 4.51185 242.777 4.3374 242.393Z" fill="#F9C68C"/>
<path d="M74.3491 219.095C76.6507 220.77 78.9533 222.48 81.2559 224.154C81.5694 224.399 85.9649 218.991 86.2446 219.2C83.9419 217.526 81.6393 215.816 79.3378 214.142C78.9882 213.863 74.5927 219.27 74.3491 219.095Z" fill="#F5A952"/>
<path d="M283.311 312.536C282.231 316.827 279.475 320.385 275.568 322.479C275.846 322.339 278.324 323.874 278.707 324.083C279.126 324.292 281.463 325.827 281.881 325.618C285.789 323.526 288.545 319.967 289.626 315.676C289.73 315.117 283.173 312.989 283.311 312.536Z" fill="#F9DD8C"/>
<path d="M145.202 82.2953C147.748 83.5165 150.331 84.7028 152.877 85.924C153.087 86.0278 156.226 79.7491 156.366 79.819C153.82 78.5978 151.237 77.4115 148.691 76.1903C148.481 76.0855 145.307 82.3303 145.202 82.2953Z" fill="#F5A952"/>
<path d="M149.324 14.7808C150.65 15.4165 151.993 16.0325 153.318 16.6683C153.428 16.7229 155.062 13.4547 155.134 13.4907C153.809 12.8561 152.465 12.2389 151.139 11.6031C151.031 11.5485 149.378 14.7982 149.324 14.7808Z" fill="#F5A952"/>
<path d="M361.472 167.028C361.611 169.784 364.471 171.842 367.123 171.04C367.297 171.005 367.785 170.342 367.821 170.307C368.378 169.715 368.937 169.086 369.496 168.493C370.054 167.866 370.611 167.273 371.169 166.645C371.309 166.47 371.658 165.912 371.833 165.877C369.181 166.68 366.322 164.621 366.182 161.866C366.182 161.935 365.414 162.668 365.484 162.598C364.926 163.191 364.367 163.819 363.809 164.412C363.251 165.04 362.693 165.633 362.135 166.26C362.03 166.366 361.472 166.853 361.472 167.028Z" fill="#F9DD8C"/>
<path d="M26.0546 173.375C25.8306 175.432 26.6903 177.396 28.3356 178.648C28.4483 178.723 29.7945 177.77 29.9438 177.676C30.0936 177.583 31.4586 176.611 31.5333 176.666C29.8879 175.413 29.0281 173.451 29.2522 171.394C29.2334 171.58 27.8313 172.235 27.6439 172.366C27.42 172.516 26.0925 173.094 26.0546 173.375Z" fill="#F2BC18"/>
<path d="M148.447 163.073C147.505 159.34 146.598 155.572 145.655 151.84C145.655 151.77 138.818 153.446 138.818 153.48C139.76 157.213 140.668 160.98 141.609 164.713C141.609 164.748 148.447 163.108 148.447 163.073Z" fill="#F9C68C"/>
<path d="M102.986 146.554C103.441 150.078 103.894 153.601 104.382 157.089C104.417 157.473 111.359 156.88 111.394 157.159C110.941 153.636 110.487 150.113 109.999 146.624C109.964 146.24 103.022 146.833 102.986 146.554Z" fill="#F5A952"/>
<path d="M126.015 103.47C129.504 104.482 132.993 105.458 136.516 106.47C136.412 106.435 136.516 103.261 136.516 102.947C136.516 102.633 136.655 99.4933 136.446 99.4234C132.958 98.4119 129.469 97.4353 125.945 96.4228C126.05 96.4577 125.945 99.632 125.945 99.9466C125.911 100.295 125.771 103.434 126.015 103.47" fill="#F5A952"/>
<path d="M135.811 50.9033C135.502 54.5222 135.227 58.1345 134.924 61.7883C134.939 61.678 138.072 61.1602 138.379 61.0991C138.687 61.0368 141.794 60.5595 141.821 60.3399C142.13 56.721 142.406 53.1087 142.708 49.456C142.694 49.5652 139.561 50.084 139.253 50.1452C138.904 50.1791 135.797 50.6575 135.811 50.9033" fill="#F9C68C"/>
<path d="M359.639 109.644C359.151 113.622 358.698 117.599 358.209 121.575C358.244 121.331 365.187 121.889 365.222 121.575C365.709 117.599 366.164 113.622 366.651 109.644C366.617 109.854 359.675 109.331 359.639 109.644" fill="#F9DD8C"/>
<path d="M315.72 127.227C316.313 130.471 316.942 133.75 317.535 136.994C317.569 137.274 320.605 137.797 320.953 137.867C321.268 137.937 324.337 138.425 324.371 138.669C323.779 135.424 323.151 132.145 322.558 128.901C322.523 128.621 319.488 128.098 319.139 128.029C318.79 127.96 315.756 127.471 315.72 127.227" fill="#F9DD8C"/>
<path d="M290.01 106.366C287.952 109.68 285.894 112.994 283.836 116.273C283.905 116.169 286.975 116.971 287.255 117.041C287.568 117.111 290.568 117.983 290.708 117.739C292.767 114.424 294.825 111.111 296.883 107.832C296.813 107.936 293.742 107.134 293.464 107.064C293.15 106.994 290.15 106.122 290.01 106.366" fill="#F9DD8C"/>
<path d="M277.168 66.1271C276.749 69.6499 276.296 73.1737 275.878 76.6965C275.843 77.1159 282.68 78.336 282.61 78.6506C283.029 75.1268 283.482 71.6041 283.901 68.0802C283.971 67.6619 277.133 66.4406 277.168 66.1271" fill="#F9DD8C"/>
<path d="M240.747 47.1699C240.223 51.0771 241.48 54.8795 244.234 57.7053C244.374 57.8801 247.13 56.3793 247.444 56.2395C247.723 56.1007 250.479 54.601 250.619 54.7058C247.863 51.9138 246.573 48.0776 247.13 44.1703C247.095 44.4489 244.269 45.4604 243.921 45.6352C243.503 45.8449 240.817 46.7515 240.747 47.1699Z" fill="#F5A952"/>
<path d="M164.303 274.704C163.257 278.61 164.512 282.727 167.582 285.344C168.07 285.762 170.442 285.483 171.105 285.483C171.943 285.518 172.745 285.518 173.581 285.553C173.757 285.553 174.489 285.448 174.629 285.553C171.558 282.902 170.268 278.82 171.35 274.914C171.21 275.402 164.442 274.146 164.303 274.704" fill="#F5A952"/>
<path d="M330.612 358.067C329.566 361.974 330.822 366.09 333.891 368.707C334.38 369.126 336.751 368.846 337.415 368.846C338.252 368.881 339.055 368.881 339.891 368.916C340.065 368.916 340.798 368.812 340.938 368.916C337.868 366.266 336.577 362.183 337.659 358.277C337.519 358.764 330.751 357.509 330.612 358.067Z" fill="#F5A952"/>
<path d="M160.241 383.807C159.247 387.729 160.56 391.827 163.665 394.401C164.159 394.813 166.527 394.501 167.189 394.493C168.027 394.516 168.83 394.505 169.667 394.528C169.842 394.526 170.573 394.412 170.714 394.514C167.607 391.905 166.26 387.841 167.289 383.921C167.156 384.41 160.372 383.247 160.241 383.807Z" fill="#F5A952"/>
<path d="M178.901 16.7785C178.118 19.7038 179.058 22.7852 181.356 24.7438C181.722 25.0562 183.497 24.8475 183.993 24.8475C184.62 24.8737 185.221 24.8737 185.847 24.9C185.978 24.9 186.526 24.8224 186.631 24.9C184.333 22.9152 183.366 19.86 184.177 16.9358C184.072 17.3007 179.032 16.3613 178.901 16.7785" fill="#F2BC18"/>
<path d="M129.625 320.569C132.266 318.283 134.958 315.999 137.598 313.713C137.75 313.569 133.279 308.19 133.354 308.117C130.713 310.403 128.023 312.687 125.381 314.972C125.207 315.092 129.676 320.521 129.625 320.569Z" fill="#F9DD8C"/>
<path d="M193.786 325.497C196.088 327.208 198.356 328.916 200.659 330.627C201.007 330.904 205.472 325.568 205.752 325.777C203.449 324.068 201.182 322.358 198.879 320.649C198.495 320.37 194.065 325.708 193.786 325.497Z" fill="#F9DD8C"/>
<path d="M335.594 388.405C336.641 389.183 337.672 389.96 338.719 390.738C338.879 390.865 340.908 388.436 341.035 388.531C339.989 387.755 338.958 386.977 337.91 386.201C337.736 386.073 335.721 388.501 335.594 388.405Z" fill="#F9DD8C"/>
<path d="M271.66 291.705C271.277 295.681 268.556 298.996 264.752 300.146C264.857 300.111 265.765 300.425 265.73 300.425C266.532 300.635 267.334 300.879 268.138 301.089C268.939 301.297 269.742 301.506 270.544 301.717C270.789 301.786 271.311 302.03 271.557 301.959C275.358 300.809 278.079 297.495 278.463 293.518C278.497 293.1 271.625 292.018 271.66 291.705Z" fill="#F5A952"/>
<path d="M383.405 192.88C386.614 194.904 390.381 195.531 394.08 194.659C394.847 194.485 396.033 192.741 396.591 192.218C397.184 191.625 397.777 191.032 398.335 190.439C398.475 190.299 398.859 189.741 399.033 189.706C395.335 190.579 391.568 189.949 388.357 187.926C387.869 187.613 383.788 193.125 383.405 192.88Z" fill="#F5A952"/>
<path d="M347.395 295.478C349.489 297.36 351.617 299.245 353.711 301.094C353.919 301.269 356.606 299.838 356.919 299.664C357.234 299.524 359.92 298.024 360.093 298.198C358 296.314 355.873 294.431 353.78 292.581C353.571 292.408 350.885 293.838 350.57 294.012C350.257 294.152 347.571 295.652 347.395 295.478" fill="#F9C68C"/>
<path d="M329.56 287.995C330.432 291.274 333.013 293.751 336.328 294.448C336.398 294.448 337.2 293.716 337.13 293.785C337.758 293.227 338.386 292.705 339.014 292.145C339.642 291.587 340.27 291.065 340.863 290.506C340.968 290.401 341.525 289.774 341.63 289.808C338.316 289.111 335.735 286.6 334.863 283.354C334.932 283.564 332.456 285.447 332.211 285.658C331.898 285.902 329.49 287.646 329.56 287.995Z" fill="#F2BC18"/>
<path d="M6.19072 152.107C6.65321 153.848 8.02375 155.164 9.78349 155.534C9.82052 155.534 10.2464 155.145 10.2093 155.182C10.543 154.885 10.8761 154.608 11.2094 154.312C11.5427 154.015 11.8764 153.737 12.1913 153.441C12.2467 153.385 12.5428 153.052 12.5987 153.071C10.8396 152.7 9.46857 151.367 9.00554 149.644C9.04224 149.756 7.72763 150.755 7.59797 150.866C7.43106 150.996 6.1348 151.922 6.19072 152.107" fill="#F9C68C"/>
<path d="M393.514 242.558C394.631 246.465 392.746 250.686 389.119 252.5C389.432 252.325 391.875 253.825 392.293 254.035C392.746 254.244 395.014 255.709 395.502 255.5C399.165 253.686 401.014 249.464 399.898 245.558C399.758 245.105 397.177 244.267 396.723 244.022C395.956 243.674 395.224 243.326 394.456 242.976C394.317 242.906 393.514 242.628 393.514 242.558Z" fill="#F5A952"/>
<path d="M423.069 232.163C423.889 235.036 422.504 238.139 419.837 239.473C420.068 239.344 421.863 240.448 422.171 240.603C422.504 240.756 424.172 241.833 424.531 241.679C427.223 240.345 428.583 237.242 427.763 234.369C427.66 234.036 425.762 233.419 425.429 233.24C424.864 232.984 424.325 232.728 423.762 232.471C423.659 232.419 423.069 232.215 423.069 232.163Z" fill="#F5A952"/>
<path d="M331.763 409.765C333.661 408.862 335.977 409.461 337.213 411.158C337.098 411.012 337.654 409.639 337.726 409.407C337.793 409.158 338.347 407.875 338.199 407.643C336.96 405.929 334.648 405.347 332.748 406.25C332.528 406.361 332.322 407.75 332.237 408.001C332.123 408.423 332.008 408.827 331.896 409.248C331.872 409.326 331.798 409.76 331.763 409.765" fill="#F5A952"/>
<path d="M296.328 411.634C296.928 413.734 295.917 416 293.967 416.974C294.136 416.881 295.448 417.687 295.673 417.799C295.917 417.912 297.135 418.698 297.397 418.586C299.364 417.612 300.357 415.344 299.757 413.246C299.683 413.003 298.296 412.553 298.053 412.421C297.64 412.235 297.246 412.047 296.834 411.859C296.76 411.822 296.328 411.672 296.328 411.634" fill="#F5A952"/>
<path d="M311.444 351.048C314.968 351.117 318.177 349.338 319.957 346.304C320.306 345.71 319.748 343.512 319.713 342.815C319.642 341.977 319.573 341.175 319.503 340.338C319.469 340.129 319.294 339.466 319.4 339.326C317.62 342.361 314.41 344.176 310.887 344.071C311.062 344.071 311.166 351.048 311.444 351.048" fill="#F2BC18"/>
<path d="M21.5 280.127C22.4076 282.708 23.3493 285.29 24.2561 287.872C24.2914 287.941 30.9197 285.605 30.8846 285.57C29.9775 282.988 29.0359 280.407 28.1282 277.825C28.1282 277.755 21.5 280.093 21.5 280.127Z" fill="#F5A952"/>
<path d="M80.3359 303.444C82.254 306.34 85.5681 307.84 88.9871 307.386C89.3017 307.351 90.1035 304.457 90.2433 304.107C90.382 303.758 91.1499 300.828 91.4284 300.793C87.9756 301.246 84.6964 299.747 82.7772 296.851C82.952 297.13 81.6609 299.747 81.5221 300.13C81.3474 300.584 80.0562 303.026 80.3359 303.444Z" fill="#F9DD8C"/>
<path d="M201.228 94.574C204.297 95.9351 207.368 97.2611 210.438 98.6211C210.333 98.5861 210.787 95.4118 210.787 95.1333C210.822 94.8187 211.31 91.7493 211.065 91.6444C207.996 90.2834 204.926 88.9584 201.856 87.5973C201.961 87.6323 201.507 90.8066 201.507 91.0862C201.507 91.3997 200.984 94.4702 201.228 94.574" fill="#F2BC18"/>
<path d="M51.4881 101.447C52.2341 103.776 50.9758 106.361 48.6704 107.2C48.9268 107.106 50.4407 108.155 50.7431 108.318C51.2325 108.573 51.7207 108.83 52.2101 109.087C52.304 109.133 52.7224 109.435 52.8163 109.388C55.1222 108.55 56.4024 105.989 55.6334 103.636C55.5177 103.287 53.9108 102.704 53.5613 102.518C53.0719 102.262 52.5826 102.006 52.0943 101.749C52.0004 101.703 51.511 101.517 51.4881 101.447" fill="#F5A952"/>
<path d="M20.035 125.427C21.7815 126.964 23.5284 128.501 25.2752 130.038C25.2287 129.992 26.1832 128.081 26.2767 127.918C26.3701 127.732 27.3481 125.869 27.2311 125.775C25.4847 124.238 23.7379 122.702 21.9914 121.165C22.0379 121.211 21.0834 123.121 20.9899 123.284C20.8965 123.471 19.9186 125.31 20.035 125.427" fill="#F9C68C"/>
<path d="M245.68 335.363C245.715 339.654 243.832 343.597 240.518 346.318C240.833 346.038 243.519 346.806 243.972 346.876C244.774 347.015 245.612 347.12 246.413 347.26C246.588 347.294 247.32 347.504 247.426 347.399C250.739 344.678 252.623 340.735 252.588 336.446C252.623 336.026 245.68 335.679 245.68 335.363" fill="#F5A952"/>
<path d="M35.4233 109.421C36.8655 110.134 38.3074 110.845 39.7313 111.557C39.945 111.664 41.7073 108.602 41.8672 108.673C40.4254 107.961 38.9837 107.249 37.5598 106.538C37.3465 106.449 35.5842 109.51 35.4233 109.421Z" fill="#F2BC18"/>
<path d="M46.6392 135.331C48.8285 135.798 51.0182 136.264 53.2072 136.705C53.5568 136.775 54.814 132.35 55.0937 132.397C52.9046 131.932 50.7145 131.465 48.5255 131.023C48.1761 130.953 46.9186 135.401 46.6392 135.331Z" fill="#F5A952"/>
<path d="M100.702 344.553C99.8996 346.855 99.0967 349.157 98.2949 351.494C98.3299 351.425 101.505 351.879 101.784 351.879C102.062 351.914 105.203 352.402 105.272 352.192C106.074 349.89 106.876 347.588 107.679 345.251C107.644 345.32 104.47 344.867 104.191 344.867C103.912 344.867 100.737 344.378 100.702 344.553" fill="#F2BC18"/>
<path d="M331.919 62.407C332.191 64.5447 333.315 66.3929 335.071 67.6436C335.162 67.7157 336.43 66.6824 336.558 66.5742C336.684 66.4836 337.952 65.4327 338.024 65.4873C336.267 64.2552 335.144 62.3895 334.872 60.2518C334.89 60.3785 333.532 61.212 333.387 61.3212C333.205 61.4468 331.901 62.2082 331.919 62.407" fill="#F2BC18"/>
<path d="M233.072 141.356C234.224 144.949 237.224 147.6 240.957 148.298C241.201 148.333 242.665 145.612 242.841 145.332C243.015 145.054 244.48 142.298 244.689 142.333C240.992 141.6 237.991 138.984 236.805 135.39C236.91 135.74 235.131 137.971 234.922 138.356C234.468 139.054 234.05 139.751 233.597 140.449C233.492 140.623 233.037 141.216 233.072 141.356Z" fill="#F9DD8C"/>
<path d="M167.345 173.385C166.369 176.489 165.427 179.593 164.451 182.699C164.52 182.489 167.59 182.281 167.938 182.246C168.323 182.176 171.323 182.036 171.427 181.722C172.404 178.617 173.347 175.513 174.323 172.408C174.253 172.617 171.184 172.827 170.834 172.862C170.451 172.896 167.415 173.071 167.345 173.385Z" fill="#F5A952"/>
<path d="M27.3423 205.326C30.0637 207.977 32.7844 210.664 35.5058 213.316C35.5753 213.386 40.4942 208.396 40.4942 208.361C37.7732 205.71 35.0517 203.024 32.3312 200.373C32.2612 200.303 27.3423 205.291 27.3423 205.326" fill="#F9DD8C"/>
<path d="M373.908 190.186C373.455 189.001 372.967 187.849 372.513 186.663C372.548 186.733 372.06 187.674 372.095 187.605C371.746 188.372 371.431 189.139 371.117 189.872C370.804 190.64 370.455 191.407 370.141 192.175C370.071 192.35 369.688 192.977 369.758 193.116C370.211 194.303 370.699 195.454 371.152 196.639C371.117 196.57 371.606 195.629 371.571 195.698C371.92 194.931 372.234 194.163 372.548 193.43C372.862 192.663 373.21 191.895 373.525 191.128C373.63 190.954 373.978 190.326 373.908 190.186" fill="#F5A952"/>
<path d="M351.524 187.771C350.858 184.641 350.209 181.541 349.542 178.41C349.619 178.844 343.032 180.75 343.128 181.293C343.795 184.423 344.444 187.523 345.111 190.654C345.003 190.237 351.62 188.315 351.524 187.771Z" fill="#F5A952"/>
<path d="M159.372 343.29C162.408 343.743 165.477 344.196 168.513 344.686C168.547 344.686 169.35 339.487 169.28 339.487C166.245 339.034 163.175 338.581 160.14 338.093C160.14 338.093 159.337 343.29 159.372 343.29" fill="#F5A952"/>
<path d="M126.732 364.124C127.51 361.155 128.292 358.152 129.106 355.188C129.109 355.153 124.028 353.795 124.02 353.864C123.242 356.832 122.46 359.835 121.646 362.8C121.646 362.8 126.728 364.158 126.732 364.124Z" fill="#F5A952"/>
<path d="M143.354 377.911C144.993 377.911 146.633 377.911 148.272 377.911C148.411 377.911 148.9 375.574 148.935 375.364C148.97 375.154 149.459 372.818 149.563 372.818C147.924 372.818 146.284 372.818 144.645 372.818C144.505 372.818 144.015 375.154 143.982 375.364C143.912 375.539 143.422 377.911 143.354 377.911Z" fill="#F9DD8C"/>
<path d="M283.348 345.189C284.149 347.979 283.451 350.84 281.463 352.969C281.568 352.829 283.765 353.596 284.01 353.665C284.289 353.735 286.382 354.537 286.557 354.328C288.545 352.201 289.208 349.34 288.44 346.55C288.37 346.305 286.208 345.922 285.894 345.851C285.615 345.746 283.416 345.398 283.348 345.189Z" fill="#F9DD8C"/>
<path d="M82.9531 389.633C84.0345 391.796 85.1159 393.924 86.1973 396.086C86.3371 396.331 88.5 396.331 88.8135 396.365C89.128 396.4 91.3258 396.365 91.4296 396.576C90.3493 394.412 89.2668 392.284 88.1865 390.12C88.0466 389.878 85.8838 389.878 85.5692 389.842C85.2907 389.807 83.0929 389.842 82.9531 389.633Z" fill="#F9DD8C"/>
<path d="M45.8496 313.862C46.9659 315.537 48.1175 317.21 49.2337 318.85C49.3037 318.956 51.5009 318.014 51.7106 317.908C51.9192 317.839 54.1181 316.862 54.1519 316.931C53.0356 315.257 51.8854 313.582 50.769 311.943C50.6991 311.838 48.5011 312.781 48.2921 312.884C48.1175 312.955 45.8847 313.931 45.8496 313.862" fill="#F2BC18"/>
<path d="M128.35 284.176C130.791 286.549 134.245 287.351 137.489 286.304C137.698 286.235 137.838 283.968 137.873 283.688C137.908 283.443 138.013 281.142 138.221 281.071C134.977 282.118 131.523 281.316 129.082 278.944C129.256 279.118 128.733 281.247 128.698 281.56C128.628 281.909 128.07 283.897 128.35 284.176Z" fill="#F9C68C"/>
<path d="M196.437 287.647C199.018 288.065 201.599 288.483 204.181 288.902C204.042 288.867 204.705 283.67 204.495 283.635C201.914 283.215 199.333 282.797 196.75 282.38C196.89 282.38 196.227 287.612 196.437 287.647Z" fill="#F9DD8C"/>
<path d="M252.275 315.169C254.612 315.169 256.95 315.169 259.287 315.169C259.461 315.169 259.566 309.902 259.636 309.902C257.299 309.902 254.961 309.902 252.624 309.902C252.485 309.902 252.38 315.169 252.275 315.169Z" fill="#F2BC18"/>
<path d="M225.542 28.6831C227.878 28.6831 230.216 28.6831 232.555 28.6831C232.728 28.6831 232.832 23.4159 232.903 23.4159C230.566 23.4159 228.228 23.4159 225.89 23.4159C225.751 23.4159 225.612 28.6831 225.542 28.6831Z" fill="#F9DD8C"/>
<path d="M211.178 52.0894C213.515 52.0894 215.852 52.0894 218.19 52.0894C218.364 52.0894 218.468 46.8221 218.539 46.8221C216.201 46.8221 213.864 46.8221 211.527 46.8221C211.387 46.8221 211.247 52.0894 211.178 52.0894Z" fill="#F9DD8C"/>
<path d="M343.698 150.669C346 151.472 348.337 152.239 350.64 153.042C350.78 153.077 352.071 151.124 352.21 150.949C352.349 150.774 353.64 148.786 353.744 148.821C351.443 148.018 349.105 147.252 346.802 146.449C346.664 146.414 345.373 148.368 345.233 148.542C345.093 148.681 343.802 150.704 343.698 150.669Z" fill="#F2BC18"/>
<path d="M159.304 103.982C160.805 107.226 164.223 109.111 167.782 108.691C167.99 108.657 168.549 106.425 168.618 106.18C168.688 105.935 169.212 103.669 169.386 103.669C165.828 104.087 162.445 102.203 160.909 98.9586C161.084 99.3071 160.212 101.086 160.072 101.47C159.932 101.923 159.096 103.529 159.304 103.982" fill="#F9DD8C"/>
<path d="M41.8369 278.244C44.9065 277.616 47.9761 277.023 51.0111 276.395C51.6043 276.255 51.2209 271.301 51.7441 271.163C48.6737 271.79 45.6046 272.383 42.5691 273.011C41.9764 273.151 42.36 278.139 41.8369 278.244" fill="#F5A952"/>
<path d="M105.328 298.582C106.689 300.501 108.049 302.385 109.41 304.303C109.305 304.164 113.456 300.954 113.316 300.779C111.956 298.861 110.596 296.978 109.235 295.059C109.34 295.163 105.189 298.373 105.328 298.582Z" fill="#F5A952"/>
<path d="M371.72 244.071C370.465 247.107 373.046 250.734 376.326 250.561C376.849 250.526 378 249.27 378.385 248.921C378.872 248.537 379.36 248.153 379.813 247.735C379.919 247.63 380.267 247.247 380.406 247.247C377.127 247.42 374.581 243.791 375.801 240.757C375.767 240.862 375.209 241.21 375.174 241.21C374.686 241.595 374.198 241.978 373.708 242.363C373.221 242.745 372.733 243.13 372.28 243.548C372.174 243.688 371.79 243.896 371.72 244.071Z" fill="#F5A952"/>
<path d="M318.961 310.949C321.543 310.949 324.125 310.915 326.706 310.915C326.846 310.915 326.915 305.647 326.986 305.647C324.404 305.647 321.821 305.682 319.24 305.682C319.101 305.682 319.031 310.949 318.961 310.949Z" fill="#F5A952"/>
<path d="M337.484 330.537C337.066 332.665 336.648 334.757 336.194 336.885C336.194 336.815 338.602 336.78 338.81 336.78C339.019 336.78 341.428 336.78 341.428 336.641C341.845 334.513 342.264 332.42 342.718 330.292C342.718 330.361 340.31 330.397 340.102 330.397C339.892 330.397 337.519 330.361 337.484 330.537Z" fill="#F5A952"/>
<path d="M419.122 286.348C418.914 287.412 418.704 288.46 418.478 289.523C418.478 289.487 419.681 289.471 419.786 289.471C419.89 289.471 421.093 289.471 421.093 289.4C421.304 288.337 421.513 287.291 421.739 286.226C421.739 286.261 420.535 286.279 420.431 286.279C420.326 286.279 419.14 286.261 419.122 286.348" fill="#F5A952"/>
<path d="M399.476 271.623C399.174 273.158 398.871 274.67 398.544 276.206C398.544 276.156 400.282 276.132 400.433 276.132C400.584 276.132 402.322 276.132 402.322 276.03C402.624 274.494 402.926 272.983 403.254 271.447C403.254 271.497 401.515 271.522 401.365 271.522C401.214 271.522 399.502 271.497 399.476 271.623Z" fill="#F5A952"/>
<path d="M187.03 417.072C186.821 418.135 186.612 419.182 186.385 420.246C186.385 420.211 187.589 420.194 187.693 420.194C187.798 420.194 189.001 420.194 189.001 420.123C189.211 419.061 189.419 418.014 189.646 416.949C189.646 416.984 188.443 417.002 188.339 417.002C188.233 417.002 187.048 416.984 187.03 417.072Z" fill="#F5A952"/>
<path d="M106.845 386.46C107.727 387.093 108.592 387.716 109.466 388.365C109.434 388.35 109.918 387.249 109.962 387.154C110.004 387.058 110.505 385.963 110.441 385.933C109.56 385.301 108.695 384.677 107.821 384.028C107.854 384.044 107.369 385.146 107.326 385.241C107.282 385.336 106.773 386.407 106.845 386.46Z" fill="#F5A952"/>
<path d="M76.5068 367.649C76.5232 368.733 76.5363 369.801 76.5363 370.889C76.5287 370.855 77.7018 370.587 77.8045 370.564C77.9072 370.543 79.0847 370.292 79.0694 370.225C79.053 369.14 79.0399 368.073 79.0399 366.985C79.0476 367.019 77.8733 367.286 77.7718 367.309C77.6691 367.33 76.5057 367.561 76.5068 367.649Z" fill="#F5A952"/>
<path d="M0.949584 273.25C2.21515 274.159 3.45811 275.058 4.71341 275.988C4.66819 275.968 5.36335 274.383 5.42561 274.246C5.48787 274.11 6.20608 272.537 6.11476 272.495C4.84919 271.588 3.6058 270.689 2.35049 269.758C2.39615 269.779 1.70099 271.363 1.63873 271.499C1.57647 271.637 0.845486 273.176 0.949584 273.25Z" fill="#F5A952"/>
<path d="M398.543 81.4923C399.741 82.6261 400.962 83.76 402.162 84.8938C402.248 84.9812 404.581 82.6709 404.625 82.7135C403.426 81.5797 402.206 80.4459 401.007 79.3131C400.919 79.2257 398.607 81.536 398.543 81.4923" fill="#F2BC18"/>
<path d="M400.299 119.67C402.009 121.274 404.52 121.588 406.578 120.437C406.753 120.333 406.404 118.065 406.404 117.821C406.369 117.577 406.02 115.274 406.16 115.204C404.102 116.355 401.59 116.042 399.88 114.437C399.915 114.472 399.915 115.274 399.915 115.204C399.951 115.832 400.02 116.46 400.055 117.053C400.091 117.682 400.16 118.309 400.194 118.902C400.229 119.041 400.194 119.6 400.299 119.67" fill="#F5A952"/>
<path d="M89.6542 59.5534C91.3637 61.158 93.876 61.4726 95.934 60.3213C96.1088 60.2164 95.7592 57.9487 95.7592 57.704C95.7243 57.4605 95.3758 55.1589 95.5156 55.089C93.4566 56.2392 90.9453 55.9257 89.2358 54.3211C89.2708 54.355 89.2708 55.1589 89.2708 55.089C89.3057 55.716 89.3746 56.3452 89.4106 56.9373C89.4445 57.5653 89.5144 58.1934 89.5493 58.7866C89.5843 58.9253 89.5493 59.4496 89.6542 59.5534Z" fill="#F5A952"/>
<path d="M147.644 299.772C147.783 302.529 150.643 304.587 153.295 303.784C153.469 303.749 153.958 303.087 153.992 303.051C154.55 302.458 155.109 301.831 155.667 301.238C156.225 300.61 156.783 300.017 157.341 299.389C157.481 299.215 157.829 298.657 158.004 298.622C155.353 299.424 152.492 297.366 152.353 294.61C152.353 294.68 151.586 295.412 151.656 295.343C151.096 295.936 150.539 296.563 149.98 297.156C149.423 297.784 148.864 298.377 148.307 299.005C148.202 299.11 147.644 299.598 147.644 299.772Z" fill="#F5A952"/>
<path d="M97.3766 281.053C100.446 281.959 103.482 282.867 106.551 283.774C106.133 283.634 107.598 276.936 107.074 276.762C104.005 275.855 100.969 274.948 97.8999 274.041C98.3182 274.181 96.8534 280.913 97.3766 281.053Z" fill="#F5A952"/>
<path d="M193.441 171.773C195.151 173.377 197.662 173.691 199.721 172.54C199.895 172.436 199.546 170.168 199.546 169.924C199.511 169.68 199.163 167.377 199.302 167.307C197.244 168.459 194.732 168.145 193.023 166.539C193.058 166.576 193.058 167.377 193.058 167.307C193.093 167.935 193.163 168.564 193.197 169.157C193.233 169.785 193.303 170.412 193.336 171.005C193.371 171.145 193.336 171.703 193.441 171.773" fill="#F5A952"/>
<path d="M338.556 110.945C339.497 114.364 342.672 116.736 346.231 116.666C346.509 116.666 347.417 114.643 347.557 114.399C347.695 114.154 348.603 112.097 348.848 112.097C345.289 112.201 342.114 109.828 341.172 106.375C341.277 106.724 340.021 108.328 339.846 108.642C339.637 109.026 338.451 110.491 338.556 110.945" fill="#F2BC18"/>
<path d="M315.041 106.967C315.18 109.723 316.54 112.131 318.773 113.701C318.913 113.804 320.692 112.271 320.902 112.131C321.077 111.991 322.89 110.456 322.995 110.525C320.727 108.955 319.402 106.514 319.262 103.793C319.262 104.038 317.378 105.188 317.133 105.363C316.855 105.573 315.041 106.619 315.041 106.967Z" fill="#F2BC18"/>
<path d="M365.675 90.2148C365.675 93.2493 365.675 96.3198 365.675 99.3543C365.675 99.7028 370.872 100.017 370.872 100.296C370.872 97.2614 370.872 94.1909 370.872 91.1564C370.872 90.8068 365.675 90.4934 365.675 90.2148Z" fill="#F5A952"/>
<path d="M10.7907 195.288C10.3367 198.812 9.84855 202.3 9.39502 205.824C9.39502 205.719 14.6275 206.277 14.6629 206.067C15.1161 202.545 15.6047 199.056 16.0582 195.533C16.0228 195.638 10.7907 195.114 10.7907 195.288Z" fill="#F5A952"/>
<path d="M29.8552 241.459C32.4713 242.505 35.0882 243.586 37.7392 244.633C37.6342 244.598 37.8788 242.226 37.8788 242.016C37.8788 241.772 38.1578 239.469 37.9833 239.401C35.3668 238.354 32.7508 237.273 30.0994 236.226C30.2039 236.26 29.9598 238.633 29.9598 238.841C29.9598 239.086 29.6808 241.389 29.8552 241.459Z" fill="#F9DD8C"/>
<path d="M49.2852 357.632C50.9514 357.616 52.6183 357.582 54.2677 357.566C54.5484 357.566 54.7789 355.19 55.0269 355.19C53.36 355.207 51.6942 355.239 50.0438 355.256C49.7635 355.256 49.5321 357.632 49.2852 357.632" fill="#F5A952"/>
<path d="M65.3945 339.879C66.3012 342.461 67.2089 345.043 68.1155 347.659C68.2204 347.972 70.2434 348.462 70.5569 348.601C70.9064 348.741 72.9294 349.159 73.0343 349.508C72.1276 346.926 71.2199 344.345 70.3133 341.73C70.2084 341.415 68.1854 340.926 67.8719 340.787C67.5224 340.647 65.4994 340.229 65.3945 339.879Z" fill="#F2BC18"/>
<path d="M20.1646 312.042C20.9881 314.385 21.812 316.73 22.6355 319.106C22.7306 319.39 24.5679 319.834 24.853 319.961C25.1696 320.088 27.007 320.468 27.1021 320.785C26.2786 318.439 25.455 316.096 24.6315 313.721C24.5364 313.434 22.6991 312.992 22.4137 312.865C22.129 312.739 20.2917 312.358 20.1646 312.042Z" fill="#F9C68C"/>
<path d="M380.948 170.014C387.786 169.909 394.589 169.769 401.426 169.665C401.81 169.665 401.357 162.269 401.496 162.269C394.659 162.374 387.856 162.513 381.019 162.618C380.635 162.618 381.053 170.014 380.948 170.014Z" fill="#F9DD8C"/>
<path d="M407.222 134.14C405.342 137.326 403.464 140.512 401.584 143.699C401.776 143.399 408.991 147.157 409.237 146.748C411.116 143.562 412.995 140.376 414.875 137.189C414.684 137.49 407.439 133.731 407.222 134.14Z" fill="#F9DD8C"/>
<path d="M282.287 156.786C282.811 160.902 284.973 164.46 288.359 166.868C288.532 167.008 290.974 165.019 291.218 164.809C291.462 164.635 293.904 162.611 294.044 162.716C290.66 160.344 288.497 156.751 287.974 152.634C288.009 152.879 285.393 154.483 285.113 154.693C284.8 154.936 282.254 156.402 282.287 156.786" fill="#F9DD8C"/>
<path d="M263.916 393.253C264.438 397.368 266.602 400.927 269.985 403.334C270.159 403.473 272.602 401.486 272.846 401.276C273.09 401.101 275.532 399.078 275.67 399.182C272.288 396.81 270.125 393.216 269.601 389.1C269.636 389.344 267.019 390.95 266.741 391.16C266.426 391.403 263.88 392.868 263.916 393.253" fill="#F9DD8C"/>
<path d="M406.326 217.997C405.522 221.032 404.756 224.033 403.954 227.067C403.919 227.207 408.976 228.637 408.941 228.707C409.744 225.672 410.512 222.672 411.314 219.636C411.384 219.497 406.326 218.066 406.326 217.997Z" fill="#F5A952"/>
<path d="M357.617 208.509C358.593 211.998 359.571 215.521 360.546 219.01C360.686 219.533 365.71 218.661 365.815 219.115C364.838 215.626 363.862 212.102 362.884 208.614C362.745 208.091 357.723 208.962 357.617 208.509" fill="#F9DD8C"/>
<path d="M410.775 198.501C411.751 201.989 412.729 205.513 413.706 209.001C413.844 209.524 418.868 208.652 418.973 209.106C417.996 205.617 417.02 202.094 416.042 198.605C415.903 198.082 410.88 198.955 410.775 198.501Z" fill="#F9DD8C"/>
<path d="M319.226 165.112C321.808 165.775 324.389 166.438 326.971 167.1C326.517 166.997 327.285 161.973 326.762 161.833C324.181 161.17 321.598 160.507 319.017 159.845C319.47 159.984 318.704 165.007 319.226 165.112" fill="#F5A952"/>
<path d="M266.497 126.53C268.625 127.472 270.718 128.379 272.845 129.322C272.672 129.252 272.672 126.949 272.637 126.704C272.602 126.39 272.637 124.193 272.392 124.088C270.264 123.147 268.171 122.239 266.043 121.297C266.218 121.367 266.218 123.67 266.253 123.913C266.287 124.227 266.253 126.426 266.497 126.53" fill="#F5A952"/>
<path d="M256.107 174.248C258.49 173.841 260.349 172.128 261 169.794C261.089 169.446 259.685 167.939 259.495 167.628C259.142 167.107 258.765 166.629 258.412 166.108C258.352 166.016 257.94 165.547 257.964 165.504C257.348 167.829 255.454 169.551 253.073 169.959C253.208 169.923 254.449 171.907 254.578 172.125C254.707 172.343 255.864 174.277 256.107 174.248Z" fill="#F5A952"/>
<path d="M183.785 332.281C183.855 336.153 185.982 339.572 189.366 341.386C189.785 341.63 192.611 337.339 192.959 337.514C189.541 335.7 187.447 332.246 187.378 328.409C187.378 328.758 185.843 330.013 185.564 330.328C185.249 330.676 183.785 331.793 183.785 332.281" fill="#F5A952"/>
<path d="M153.416 412.495C153.486 416.367 155.615 419.785 158.998 421.599C159.417 421.842 162.242 417.552 162.592 417.727C159.173 415.914 157.08 412.46 157.01 408.622C157.01 408.971 155.475 410.227 155.195 410.54C154.882 410.889 153.416 412.006 153.416 412.495" fill="#F5A952"/>
<path d="M280.87 381.089C282.545 382.449 284.219 383.81 285.894 385.17C285.755 385.065 286.347 382.833 286.382 382.589C286.487 381.961 286.591 381.368 286.697 380.74C286.697 380.635 286.87 380.008 286.801 379.972C285.127 378.612 283.451 377.251 281.777 375.891C281.917 375.996 281.323 378.228 281.29 378.472C281.184 379.101 281.079 379.693 280.975 380.321C280.975 380.425 280.801 381.054 280.87 381.089" fill="#F9DD8C"/>
<path d="M135.366 377.531C137.912 378.822 140.458 380.112 143.004 381.403C143.423 381.612 146.11 377.252 146.458 377.426C143.912 376.136 141.365 374.845 138.819 373.553C138.4 373.345 135.714 377.705 135.366 377.531Z" fill="#F5A952"/>
<path d="M161.965 142.543C161.511 145.683 161.057 148.857 160.604 151.996C160.569 152.241 170.964 153.95 170.929 154.055C171.384 150.915 171.837 147.74 172.29 144.601C172.36 144.321 161.965 142.647 161.965 142.543" fill="#F9DD8C"/>
<path d="M238.798 106.29C234.404 104.511 230.008 102.731 225.613 100.952C226.031 101.127 222.612 110.964 223.17 111.209C227.566 112.988 231.962 114.766 236.357 116.546C235.938 116.372 239.391 106.499 238.798 106.29" fill="#F9DD8C"/>
<path d="M221.793 428.154C219.324 427.155 216.855 426.155 214.385 425.156C214.621 425.253 212.7 430.779 213.013 430.917C215.483 431.916 217.952 432.916 220.421 433.915C220.187 433.817 222.126 428.271 221.793 428.154Z" fill="#F9DD8C"/>
<path d="M218.506 2.49252C216.453 1.66126 214.401 0.829963 212.347 -0.000205481C212.543 0.0806267 210.946 4.67606 211.207 4.78966C213.26 5.62092 215.313 6.45219 217.365 7.28345C217.171 7.20152 218.783 2.58973 218.506 2.49252" fill="#F9DD8C"/>
<path d="M127.202 117.076C127.517 120.564 127.865 124.053 128.179 127.542C128.215 127.75 135.191 127.227 135.191 127.332C134.877 123.843 134.528 120.355 134.214 116.866C134.214 116.657 127.202 117.146 127.202 117.076Z" fill="#F2BC18"/>
<path d="M83.2469 124.661C83.2469 127.731 83.2119 130.836 83.2119 133.906C83.2119 133.941 88.4802 133.976 88.4802 133.941C88.4802 130.871 88.5152 127.766 88.5152 124.697C88.5152 124.627 83.2469 124.627 83.2469 124.661Z" fill="#F9DD8C"/>
<path d="M185.72 74.3789C183.697 77.1348 183.417 80.6586 184.952 83.7281C185.057 83.9378 187.324 83.7281 187.603 83.7281C187.882 83.7281 190.15 83.5184 190.255 83.6931C188.719 80.6237 189.034 77.0999 191.022 74.3439C190.882 74.5536 188.684 74.3439 188.371 74.3439C187.987 74.3439 185.929 74.1003 185.72 74.3789Z" fill="#F5A952"/>
<path d="M234.334 73.3991C231.23 73.0507 228.124 72.7022 225.02 72.3876C224.88 72.3876 224.183 77.586 224.112 77.586C227.218 77.9344 230.322 78.2829 233.427 78.5975C233.566 78.6324 234.264 73.3991 234.334 73.3991Z" fill="#F9C68C"/>
<path d="M169.874 46.8279C168.199 48.4675 166.49 50.0721 164.815 51.7117C164.92 51.6079 168.723 55.2355 168.897 55.0608C170.571 53.4212 172.28 51.8166 173.956 50.177C173.816 50.2819 170.048 46.6532 169.874 46.8279Z" fill="#F9DD8C"/>
<path d="M117.755 30.3789C116.08 32.0185 114.371 33.6231 112.696 35.2627C112.801 35.1578 116.604 38.7866 116.778 38.6118C118.453 36.9722 120.162 35.3676 121.837 33.728C121.697 33.8329 117.93 30.2042 117.755 30.3789Z" fill="#F9DD8C"/>
<path d="M36.291 79.0261C35.0391 80.2517 33.7611 81.451 32.5093 82.6766C32.5877 82.5991 35.4304 85.3113 35.5609 85.1802C36.8128 83.9546 38.0903 82.7553 39.3422 81.5297C39.2377 81.6083 36.4216 78.8961 36.291 79.0261Z" fill="#F9DD8C"/>
<path d="M217.051 126.199C213.738 127.663 210.389 129.129 207.073 130.629C206.586 130.839 208.156 135.653 207.736 135.861C211.051 134.397 214.401 132.932 217.715 131.431C218.202 131.222 216.632 126.408 217.051 126.199Z" fill="#F9DD8C"/>
<path d="M185.912 107.135C182.109 107.799 179.005 110.381 177.714 114.008C177.539 114.462 182.179 116.625 182.041 117.009C183.366 113.38 186.435 110.799 190.237 110.136C189.889 110.206 188.424 108.845 188.075 108.601C187.726 108.322 186.4 107.032 185.912 107.135" fill="#F5A952"/>
<path d="M115.047 72.0101C113.757 74.5574 112.466 77.1036 111.176 79.6498C110.967 80.0693 115.327 82.7553 115.152 83.1038C116.443 80.5575 117.734 78.0102 119.025 75.464C119.234 75.0457 114.839 72.3597 115.047 72.0101Z" fill="#F9DD8C"/>
<path d="M351.328 357.922C354.402 356.928 357.513 355.935 360.588 354.938C360.57 354.956 359.349 351.291 359.276 351.288C356.202 352.283 353.092 353.276 350.017 354.27C350.053 354.272 351.273 357.938 351.328 357.922Z" fill="#F5A952"/>
<path d="M380.171 368.1C382.045 367.494 383.941 366.888 385.817 366.281C385.805 366.292 385.062 364.057 385.017 364.055C383.143 364.661 381.247 365.266 379.371 365.874C379.393 365.875 380.137 368.11 380.171 368.1Z" fill="#F5A952"/>
<path d="M373.477 52.9668C375.353 52.3605 377.249 51.7554 379.123 51.1491C379.114 51.159 378.369 48.9241 378.325 48.9219C376.449 49.5281 374.553 50.1333 372.679 50.7395C372.699 50.7417 373.444 52.9766 373.477 52.9668Z" fill="#F5A952"/>
<path d="M86.8118 85.844C88.6873 85.2377 90.5836 84.6315 92.458 84.0252C92.4471 84.0362 91.7032 81.8013 91.6584 81.7991C89.784 82.4053 87.8877 83.0105 86.0122 83.6167C86.0341 83.6178 86.779 85.8538 86.8118 85.844" fill="#F5A952"/>
<path d="M360.096 334.222C362.155 336.872 364.981 338.617 368.295 339.245C368.574 339.315 369.969 337.675 370.213 337.43C370.458 337.222 371.819 335.547 372.098 335.582C368.819 334.919 365.993 333.176 363.9 330.558C364.005 330.698 359.958 334.046 360.096 334.222" fill="#F2BC18"/>
<path d="M388.315 328.012C389.513 329.555 391.158 330.57 393.087 330.936C393.249 330.976 394.061 330.021 394.203 329.879C394.346 329.758 395.137 328.784 395.299 328.805C393.391 328.418 391.747 327.403 390.529 325.88C390.589 325.961 388.234 327.91 388.315 328.012" fill="#F2BC18"/>
<path d="M381.547 303.031C382.733 304.182 383.919 305.332 385.106 306.519C385.211 306.624 385.734 306.763 385.839 306.798C386.432 307.008 387.025 307.217 387.582 307.425C388.175 307.636 388.768 307.845 389.326 308.019C389.501 308.09 389.955 308.123 390.059 308.263C388.873 307.112 387.687 305.961 386.501 304.775C386.397 304.671 385.872 304.531 385.768 304.496C385.176 304.286 384.582 304.077 384.024 303.868C383.431 303.659 382.838 303.449 382.28 303.276C382.106 303.205 381.653 303.136 381.547 303.031Z" fill="#F5A952"/>
<path d="M79.5506 109.259C91.1675 111.212 99.8188 122.445 99.7838 134.097C99.7489 140.202 97.5162 146.132 93.9235 151.016C93.1206 152.132 92.214 153.179 91.2713 154.19C90.9928 154.505 88.9687 156.388 91.1675 154.4C93.0857 152.656 91.7945 153.807 91.3063 154.19C90.5744 154.749 89.8065 155.272 89.0047 155.795C86.1439 157.574 82.9347 159.074 79.5506 159.424C75.9918 159.807 72.4341 158.761 70.3052 155.795C69.4685 154.644 68.9103 153.284 68.8054 151.853C68.7355 151.121 68.8404 150.388 69.0501 149.691C69.4335 148.435 71.2129 146.725 68.422 149.202C67.9338 149.621 67.4455 150.04 66.9572 150.458C72.8176 145.958 79.3759 151.295 82.69 156.248C85.7944 160.889 87.434 166.365 87.7824 171.912C88.097 177.424 87.1554 183.006 85.0276 188.063C83.9811 190.611 82.6201 193.018 81.0155 195.215C80.1787 196.331 79.306 197.413 78.3294 198.39C78.0498 198.704 77.7013 198.982 77.4228 199.297C77.248 199.506 80.702 196.541 79.2022 197.657C78.5031 198.181 77.8412 198.704 77.1082 199.157C71.9109 202.576 63.3285 205.192 58.898 199.157C57.3633 197.064 56.5965 194.099 57.7828 191.656C57.9215 191.378 58.0613 191.169 58.2 190.924C59.2825 188.97 54.3976 193.505 55.8985 192.912C56.4567 192.704 56.945 192.389 57.5381 192.25C58.8631 191.936 60.2591 192.041 61.5491 192.424C68.3871 194.448 68.8054 202.296 66.434 207.948C63.6431 214.611 57.7129 219.285 54.7472 225.879C49.1308 238.437 52.3747 254.31 62.6316 263.485C62.8053 263.66 66.434 259.893 66.5727 259.996C59.0379 253.263 55.3054 243.009 56.0372 232.996C56.4217 228.043 57.8865 223.193 60.5027 218.972C63.713 213.775 68.4919 209.518 70.6547 203.692C72.4341 198.914 72.2943 192.634 67.3756 189.808C65.5612 188.761 63.2586 188.273 61.2356 188.866C59.0379 189.493 57.2585 191.552 55.6189 193.052C54.1191 194.413 53.1426 195.983 53.2125 198.076C53.2824 200.343 54.4326 202.541 56.0733 204.076C60.5027 208.123 67.3756 206.134 71.9448 203.448C75.8171 201.18 79.3759 197.936 82.4453 194.658C85.5158 191.343 87.8884 187.4 89.422 183.145C92.5624 174.598 92.5275 164.761 88.6202 156.458C86.4924 151.993 83.0035 146.934 77.946 145.609C73.166 144.353 69.1899 147.737 66.1893 151.086C62.8053 154.888 65.8059 160.574 69.9568 162.283C75.4686 164.551 81.9221 161.517 86.4225 158.307C94.7253 152.411 102.086 144.143 103.376 133.678C104.633 123.527 99.2955 113.026 90.2598 108.142C88.097 106.956 85.7944 106.189 83.353 105.805C83.0035 105.735 81.6435 107.304 81.365 107.549C81.2601 107.724 79.8991 109.329 79.5506 109.259" fill="#F9C68C"/>
<path d="M345.4 245.159C349.406 248.686 355.396 253.315 360.966 249.811C363.301 248.345 363.587 245.903 363.96 243.438C364.247 241.569 363.543 239.446 361.847 238.362C359.469 236.855 356.915 238.575 355.859 240.721C355.308 241.846 355.043 243.035 354.801 244.246C354.538 245.564 354.229 246.901 354.163 248.26C353.832 254.293 355.397 260.474 358.324 265.806C359.82 268.524 361.671 271.03 363.872 273.261C365.876 275.279 368.232 277.168 371.072 277.933C373.693 278.613 376.732 278.104 378.647 276.171C379.439 275.384 379.88 274.429 380.101 273.367C380.343 272.198 380.738 270.945 380.717 269.734C380.672 267.78 379.175 265.721 377.15 265.253C374.86 264.743 373.164 266.528 372.68 268.524C372.085 270.966 371.623 273.388 372.174 275.874C372.811 278.677 374.309 281.396 375.828 283.817C379.154 289.127 383.844 293.651 389.348 296.859C394.213 299.683 401.546 300.98 403.791 306.672C404.012 307.245 404.166 307.84 404.232 308.457C404.254 308.733 404.209 309.029 404.276 309.284C404.364 309.773 404.584 307.67 404.629 307.628C404.562 307.713 404.452 308.073 404.43 308.159C404.012 309.136 404.232 310.347 403.814 311.324C404.276 310.24 404.43 309.029 404.649 307.882C404.848 306.884 404.981 305.928 404.805 304.909C404.408 302.658 402.932 300.725 401.083 299.364C398.794 297.666 396.042 296.71 393.443 295.52C390.734 294.289 388.159 292.76 385.824 290.953C381.267 287.471 377.502 283.031 374.926 278.018C373.759 275.788 372.68 273.41 372.525 270.882C372.505 270.394 372.548 269.926 372.548 269.459C372.569 271.71 371.953 271.774 372.372 270.797C372.46 270.563 372.592 270.329 372.724 270.117C373.275 269.267 374.155 268.631 375.191 268.439C377.084 268.078 378.844 269.438 379.637 271.009C379.836 271.391 379.989 271.817 380.056 272.241C380.101 272.475 380.101 272.708 380.121 272.942C380.253 274.174 381.047 270.287 380.364 271.498C379.748 272.56 379.065 273.41 377.964 274.046C372.988 276.956 367.638 273.388 364.247 269.884C360.416 265.911 357.619 261.026 356.1 255.801C355.308 253.081 354.845 250.257 354.778 247.432C354.757 246.838 354.757 246.243 354.778 245.669C354.778 245.33 354.801 244.989 354.845 244.67C355.043 242.568 354.207 246.541 354.778 245.181C355.264 243.97 355.748 242.801 356.805 241.953C358.699 240.402 361.274 240.933 362.573 242.887C363.168 243.8 363.388 244.756 363.455 245.817C363.543 247.092 364.335 243.12 363.763 244.289C363.609 244.608 363.476 244.904 363.256 245.181C362.904 245.669 362.463 246.115 361.979 246.476C359.755 248.112 356.607 248.239 354.031 247.411C350.904 246.391 348.415 244.182 346.016 242.079C346.104 242.165 345.729 243.481 345.686 243.651C345.663 243.779 345.267 245.032 345.4 245.159Z" fill="#F2BC18"/>
<path d="M221.964 286.89C228.934 290.582 234.9 297.73 233.955 306.03C233.541 309.691 231.858 313.295 228.993 315.658C227.664 316.751 226.129 317.609 224.444 317.992C224.268 318.02 224.091 318.051 223.912 318.11C222.673 318.465 225.803 318.051 225.833 318.08C225.538 317.962 225.065 318.02 224.739 317.962C223.883 317.843 223.056 317.609 222.26 317.313C218.863 316.014 216.145 313.237 215.583 309.603C214.107 309.663 212.601 309.722 211.125 309.782C220.752 311.198 228.431 319.41 230.322 328.802C232.331 338.815 226.719 348.236 217.711 352.608C215.289 353.789 212.69 354.586 210.031 354.91C209.559 354.971 207.521 355.088 210.18 354.971C212.749 354.851 210.77 354.91 210.121 354.851C209.412 354.794 208.732 354.733 208.052 354.616C206.665 354.38 205.306 353.995 204.006 353.493C202.737 353.553 201.466 353.612 200.197 353.671C200.314 353.671 200.433 353.671 200.58 353.671C200.374 353.671 200.137 353.671 199.93 353.671C203.534 353.818 205.985 357.273 206.28 360.641C206.694 365.278 203.15 369.235 199.871 372.012C196.15 375.172 191.484 377.83 189.239 382.378C187.555 385.775 187.379 390.176 190.184 393.012C190.42 393.248 192.074 392.952 192.428 392.952C192.754 392.952 194.437 392.598 194.644 392.835C191.749 389.91 192.014 385.274 193.876 381.847C196.386 377.21 201.289 374.611 205.099 371.184C208.348 368.261 211.626 364.037 210.563 359.37C209.736 355.767 207.049 353.434 203.387 353.553C202.589 353.582 201.762 353.612 200.964 353.641C200.639 353.671 199.901 353.848 199.606 353.73C204.479 355.619 210.209 355.501 215.318 354.674C220.636 353.818 225.656 351.218 229.376 347.321C237.056 339.316 236.821 327.295 230.293 318.642C226.719 313.917 221.55 310.519 215.644 309.633C215.2 309.575 211.184 309.899 211.184 309.81C212.423 317.932 221.934 319.233 228.58 317.932C237.41 316.191 240.335 305.143 237.174 297.761C235.108 292.917 231.031 289.164 226.453 286.744C226.01 286.507 224.739 286.802 224.209 286.802C223.678 286.802 222.407 287.127 221.964 286.89" fill="#F9DD8C"/>
<path d="M314.77 269.507C319.31 270.527 321.128 275.363 320.738 279.618C320.637 280.663 320.415 281.736 320.077 282.726C319.89 283.215 319.704 283.704 319.452 284.168C319.283 284.515 319.061 284.804 318.859 285.137C321.516 280.513 321.23 282.047 320.029 283.342C318.085 285.402 315.755 287.017 313.383 288.538C308.798 291.459 304.203 294.115 300.836 298.543C297.787 302.533 294.25 306.823 295.304 312.189C296.851 320.281 306.115 324.183 307.822 332.149C308.321 334.467 307.945 336.825 306.937 338.98C306.669 339.587 306.347 340.138 306.026 340.686C304.627 342.99 306.416 340.35 306.618 340.015C306.416 340.35 306.117 340.646 305.894 340.935C305.019 342.057 304.177 343.192 303.321 344.359C300.229 348.557 297.296 352.629 297.53 358.093C298.145 372.064 312.205 378.763 323.335 383.452C323.759 383.612 326.126 379.064 326.453 379.188C316.222 374.88 304.445 369.538 301.264 357.798C300.615 355.387 300.403 352.804 300.848 350.361C301.075 349.178 301.432 348.045 301.931 346.929C302.238 346.224 302.596 345.576 302.987 344.942C303.201 344.575 304.303 343.053 303.017 344.766C301.8 346.393 302.712 345.173 302.992 344.83C304.71 342.574 306.416 340.35 308.049 338.022C309.46 335.984 310.712 333.773 311.061 331.293C312.157 322.825 302.763 317.793 299.438 311.038C298.472 309.065 297.989 306.903 298.226 304.716C298.367 303.463 298.728 302.22 299.273 301.084C299.541 300.475 301.159 297.995 299.621 300.17C298.095 302.315 300.051 299.923 300.556 299.481C304.683 295.602 309.944 293.352 314.344 289.838C316.594 288.045 318.289 285.852 319.986 283.551C321.52 281.484 322.983 279.504 323.544 276.954C324.555 272.337 322.916 266.45 317.798 265.284C317.589 265.242 316.371 267.167 316.207 267.404C316.177 267.579 314.934 269.569 314.77 269.507" fill="#F9C68C"/>
<path d="M319.627 87.2836C314.917 86.7255 310.592 88.9582 307.452 92.3772C303.858 96.2833 302.15 101.203 301.381 106.366C299.846 116.622 301.417 127.925 295.172 136.891C292.555 140.657 288.683 143.204 284.08 143.762C279.161 144.356 274.276 142.96 269.462 142.088C264.718 141.216 259.73 140.727 255.228 142.821C251.007 144.774 247.938 148.471 245.182 152.1C241.973 156.286 239.042 160.646 234.472 163.472C230.182 166.158 224.704 167.484 220.31 164.275C220.483 164.414 220.17 166.612 220.135 166.891C220.1 167.24 219.751 169.333 220.03 169.507C223.762 172.263 228.403 171.705 232.379 169.716C236.74 167.554 239.81 164.065 242.706 160.228C245.495 156.531 248.181 152.588 251.985 149.797C255.961 146.868 260.601 146.169 265.416 146.728C274.59 147.774 285.055 152.275 292.695 144.669C299.951 137.483 299.846 126.495 300.474 117.041C300.893 110.761 301.905 104.343 305.778 99.1791C308.987 94.9234 313.801 91.819 319.278 92.4809C319.278 92.5509 319.801 87.3186 319.627 87.2836" fill="#F5A952"/>
<path d="M67.5357 301.297C65.9878 308.005 64.3286 314.972 65.2964 321.884C65.7191 324.96 66.6268 327.982 68.1965 330.646C69.7312 333.313 71.8875 335.278 74.3135 337.143C76.5856 338.884 79.0247 340.571 80.5092 343.104C82.2537 346.064 82.3083 349.605 82.8632 352.912C83.8026 358.352 87.215 362.701 92.3085 364.856C97.7713 367.18 103.337 365.805 108.697 363.856C107.046 364.466 105.279 364.67 103.628 365.279C103.593 365.284 108.797 364.126 106.006 364.586C105.764 364.614 105.555 364.637 105.313 364.665C104.794 364.724 104.235 364.754 103.707 364.744C102.478 364.744 101.233 364.606 100.038 364.286C97.7636 363.74 95.6106 362.722 93.7635 361.318C91.9175 359.916 90.3773 358.125 89.3341 356.069C88.1009 353.576 87.818 350.799 87.4389 348.104C87.0315 345.166 86.3554 342.328 84.3356 340.032C82.5956 338.019 80.3607 336.59 78.3093 334.93C73.8701 331.436 71.314 326.602 70.4325 321.05C69.3019 313.945 70.9765 306.801 72.5746 299.911C72.5243 300.092 70.2916 300.524 70.0185 300.59C69.776 300.619 67.6088 301.007 67.5357 301.297" fill="#F9DD8C"/>
<path d="M336.2 39.9524C337.65 40.0256 339.114 40.1119 340.566 40.1851C340.652 40.1851 340.855 37.2838 340.899 37.2838C339.448 37.2117 337.983 37.1243 336.534 37.0522C336.447 37.0522 336.229 39.9524 336.2 39.9524Z" fill="#F5A952"/>
<path d="M294.328 37.4922C296.247 40.3869 299.56 41.8877 302.979 41.4333C303.293 41.3984 304.096 38.5037 304.235 38.1542C304.375 37.8057 305.143 34.875 305.421 34.84C301.969 35.2944 298.689 33.7936 296.77 30.8978C296.944 31.1774 295.654 33.7936 295.514 34.177C295.339 34.6314 294.049 37.0738 294.328 37.4922Z" fill="#F9C68C"/>
<path d="M308.089 17.0006C308.582 17.7456 309.434 18.1312 310.315 18.0154C310.396 18.0055 310.602 17.2606 310.638 17.171C310.673 17.0814 310.871 16.3277 310.943 16.3179C310.055 16.4348 309.21 16.0492 308.717 15.3031C308.761 15.3752 308.43 16.0492 308.393 16.1486C308.349 16.2644 308.018 16.8925 308.089 17.0006Z" fill="#F9C68C"/>
<path d="M358.211 76.5754C360.627 76.9369 363.069 77.2985 365.484 77.6863C365.511 77.6863 366.15 73.5496 366.096 73.5496C363.681 73.1892 361.237 72.8287 358.822 72.4398C358.822 72.4114 358.183 76.5481 358.211 76.5754" fill="#F5A952"/>
<path d="M301.033 78.6325C302.115 80.7953 303.197 82.9231 304.279 85.086C304.417 85.3306 306.58 85.3306 306.894 85.3645C307.208 85.4005 309.406 85.3645 309.511 85.5742C308.429 83.4114 307.347 81.2836 306.267 79.1207C306.127 78.8761 303.964 78.8761 303.65 78.8411C303.371 78.8061 301.173 78.8761 301.033 78.6325" fill="#F9C68C"/>
<path d="M255.945 30.5608C256.852 33.142 257.759 35.7242 258.666 38.3404C258.771 38.6539 260.794 39.1421 261.108 39.282C261.457 39.4218 263.48 39.8402 263.585 40.1897C262.677 37.6074 261.771 35.0263 260.864 32.4091C260.759 32.0956 258.735 31.6073 258.422 31.4675C258.073 31.3276 256.049 30.8743 255.945 30.5608" fill="#F5A952"/>
<path d="M336.303 104.448C338.64 106.088 340.977 107.763 343.314 109.402C343.699 109.681 347.013 105.739 347.326 105.983C344.989 104.344 342.652 102.669 340.315 101.029C339.93 100.75 336.616 104.657 336.303 104.448Z" fill="#F5A952"/>
<path d="M292.242 63.18C294.579 64.8196 296.917 66.4942 299.253 68.1337C299.638 68.4134 302.952 64.4712 303.265 64.7158C300.928 63.0763 298.591 61.4017 296.254 59.761C295.87 59.4825 292.555 63.3898 292.242 63.18Z" fill="#F5A952"/>
</g>
</svg>
